Using the Tidy-models suite for Machine Learning – Nangosyah Tom Wellard
…
We also show performance for every single fold:

log_res %>% collect_metrics(summarize = FALSE)

# A tibble: 40 × 5
   id    .metric   .estimator .estimate .config             
   <chr> <chr>     <chr>          <dbl> <chr>               
 1 Fold1 recall    binary         0.855 Preprocessor1_Model1
 2 Fold1 precision binary         0.798 Preprocessor1_Model1
 3 Fold1 f_meas    binary         0.826 Preprocessor1_Model1
 4 Fold1 accuracy  binary         0.776 Preprocessor1_Model1
 5 Fold1 kap       binary         0.514 Preprocessor1_Model1
 6 Fold1 sens      binary         0.855 Preprocessor1_Model1
 7 Fold1 spec      binary         0.647 Preprocessor1_Model1
 8 Fold1 roc_auc   binary         0.861 Preprocessor1_Model1
 9 Fold2 recall    binary         0.854 Preprocessor1_Model1
10 Fold2 precision binary         0.854 Preprocessor1_Model1
# ℹ 30 more rows
…
